[{"id":1,"name":"Skyndu","type":4,"address":"44442 Merrick Place","country":"Taipalsaari","district":"FI","tel":"291-372-3926","baby_num":8,"opening_time":"5:38 AM","close_time":"6:08 PM","evaluation":"F","price":2215},
{"id":2,"name":"Quatz","type":1,"address":"7078 Brentwood Point","country":"Floriana","district":"MT","tel":"899-768-3002","baby_num":9,"opening_time":"4:41 AM","close_time":"1:43 PM","evaluation":"M","price":3607},
{"id":3,"name":"Flipbug","type":3,"address":"157 Marcy Place","country":"Siem Reap","district":"KH","tel":"770-307-2785","baby_num":26,"opening_time":"9:48 AM","close_time":"7:52 PM","evaluation":"F","price":2246},
{"id":4,"name":"Eire","type":3,"address":"5 Sheridan Road","country":"Drogomyśl","district":"PL","tel":"591-893-3358","baby_num":32,"opening_time":"2:32 AM","close_time":"8:38 PM","evaluation":"M","price":3828},
{"id":5,"name":"Skinder","type":1,"address":"3331 Hoffman Alley","country":"Belfast","district":"GB","tel":"639-698-6234","baby_num":91,"opening_time":"6:18 AM","close_time":"4:30 PM","evaluation":"F","price":4276},
{"id":6,"name":"Skinix","type":2,"address":"5 Texas Park","country":"Kanekomachi","district":"JP","tel":"102-812-2146","baby_num":83,"opening_time":"6:21 AM","close_time":"1:34 PM","evaluation":"F","price":1364},
{"id":7,"name":"Divape","type":3,"address":"29 Dayton Avenue","country":"Hecun","district":"CN","tel":"552-941-2301","baby_num":35,"opening_time":"5:47 AM","close_time":"4:40 PM","evaluation":"F","price":3948},
{"id":8,"name":"Tambee","type":3,"address":"06817 Pleasure Alley","country":"Beijie","district":"CN","tel":"815-219-4989","baby_num":52,"opening_time":"7:39 AM","close_time":"1:59 PM","evaluation":"F","price":4566},
{"id":9,"name":"Youtags","type":3,"address":"862 Sundown Plaza","country":"Braunschweig","district":"DE","tel":"884-672-3808","baby_num":39,"opening_time":"6:03 AM","close_time":"1:05 PM","evaluation":"M","price":4779},
{"id":10,"name":"Skinix","type":1,"address":"62387 Northfield Avenue","country":"São Mateus","district":"BR","tel":"545-525-9964","baby_num":66,"opening_time":"6:25 AM","close_time":"12:28 PM","evaluation":"F","price":1763}]